,time,open,close,high,low,volume
0,1561408080000,0.0265,0.0036,0.0265,0.0036,2.0
1,1561457100000,0.0226,0.0226,0.0226,0.0226,5.52136714
2,1561506000000,0.011000000000000001,0.011000000000000001,0.011000000000000001,0.011000000000000001,1516.98953053
3,1561506600000,0.01,0.01,0.01,0.01,1425.48464239
4,1561506840000,0.01,0.01,0.01,0.01,277.22149754
5,1561506900000,0.01,0.01,0.01,0.01,1937.30404393
6,1561507440000,0.01,0.01,0.01,0.01,1576.39925886
7,1561507620000,0.01,0.01,0.01,0.01,1487.8182726
8,1561507680000,0.01,0.01,0.01,0.01,1244.78854419
9,1561535340000,0.009000000000000001,0.009000000000000001,0.009000000000000001,0.009000000000000001,520.43608592
10,1561562700000,0.0081,0.0081,0.0081,0.0081,46.99739547
11,1561572660000,0.0074,0.0074,0.0074,0.0074,402.15999999
12,1561584120000,0.006999999999999999,0.006999999999999999,0.006999999999999999,0.006999999999999999,1040.87217184
13,1561584180000,0.006999999999999999,0.006999999999999999,0.006999999999999999,0.006999999999999999,1040.87217184
14,1561700160000,0.004,0.004,0.004,0.004,5000.0
15,1561700340000,0.00215,0.00215,0.00215,0.00215,272.0
16,1561700460000,0.004,0.004,0.004,0.004,272.0
17,1561839840000,0.00396,0.00396,0.00396,0.00396,333.0
18,1561911480000,0.00395,0.00395,0.00395,0.00395,1003.357342
19,1561911540000,0.00395,0.00395,0.00395,0.00395,805.194267
20,1562189220000,0.00395,0.0025001,0.00395,0.0025001,559.44
21,1562410560000,0.00385,0.00385,0.00385,0.00385,500.0
22,1562575500000,0.00385,0.00385,0.00385,0.00385,272.0
23,1562575680000,0.00385,0.00385,0.00385,0.00385,272.0
24,1562575740000,0.00385,0.00385,0.00385,0.00385,1199.252403792208
25,1562576760000,0.00385,0.0026761,0.00385,0.0026761,1497.0
26,1562586600000,0.00385,0.00385,0.00385,0.00385,1119.494145
27,1562714580000,0.0026763000000000004,0.0026761999999999997,0.0026763000000000004,0.0026761999999999997,10392.91784277
28,1562714640000,0.00255,0.00255,0.00255,0.00255,4937.8177698
29,1562734980000,0.0031998,0.0031998,0.0031998,0.0031998,312.5098
30,1562735400000,0.0031998,0.0031999000000000003,0.0031999000000000003,0.0031998,312.5098
31,1562742060000,0.00255,0.00255,0.00255,0.00255,1117.2551567
32,1562742660000,0.0029998,0.0029999000000000002,0.0029999000000000002,0.0029998,8006.75155167
33,1562766480000,0.003,0.003,0.003,0.003,1115.0206465999997
34,1562804400000,0.0032,0.0032,0.0032,0.0032,1052.0
35,1563188880000,0.0032,0.0032,0.0032,0.0032,13798.47575194
36,1563661020000,0.0025058000000000003,0.0025011,0.0025058000000000003,0.0025011,71069.42835243
37,1563661680000,0.002,0.002,0.002,0.002,19482.19037961
38,1563661740000,0.0019999,0.0019999,0.0019999,0.0019999,8384.18837747
39,1563661800000,0.002,0.002,0.002,0.002,122.80962039
40,1563663180000,0.002305,0.002305,0.002305,0.002305,3296.43289333
41,1563663360000,0.0024146999999999997,0.0024146999999999997,0.0024146999999999997,0.0024146999999999997,24938.3937842
42,1564432920000,0.005,0.005,0.005,0.005,500.0
43,1564695540000,0.0020280999999999997,0.0020280999999999997,0.0020280999999999997,0.0020280999999999997,444.0
44,1564696140000,0.0020280999999999997,0.0020280999999999997,0.0020280999999999997,0.0020280999999999997,444.0
45,1564711200000,0.004952300000000001,0.0020280000000000003,0.004952300000000001,0.0020280000000000003,899.0
46,1564711260000,0.004952300000000001,0.0012,0.004952300000000001,0.0012,13939.0
47,1564711320000,0.0049,0.0012,0.004952300000000001,0.0012,30900.0
48,1564711380000,0.0019079999999999998,0.0019079999999999998,0.0019079999999999998,0.0019079999999999998,3190.16
49,1564711440000,0.0015,0.0049,0.0049,0.0015,57986.845922500004
50,1564711500000,0.0015,0.0015,0.0049,0.0015,150000.0
51,1564711560000,0.0019081,0.0019081,0.0019081,0.0019081,444.0
52,1564711620000,0.0049,0.0049,0.0049,0.002,150000.0
53,1564711680000,0.002,0.0049,0.004952300000000001,0.002,129700.0
54,1564711740000,0.0021,0.0013,0.0048,0.0013,70206.71222999999
55,1564711800000,0.0047,0.0047,0.0047,0.0047,15000.0
56,1564711860000,0.0045,0.0013,0.0045,0.0013,44940.0
57,1564713060000,0.0013001,0.0013001,0.0013001,0.0013001,9950.0
58,1564854240000,0.0015007,0.0015,0.0015007,0.0015,39886.718805000004
59,1565618100000,0.003958,0.003958,0.003958,0.003958,1489.42783822
60,1565618460000,0.0039369999999999995,0.0039369999999999995,0.0039369999999999995,0.0039369999999999995,1485.96000087
61,1565618520000,0.00161,0.00161,0.00161,0.00161,1485.96000087
62,1565650560000,0.0038,0.00161,0.0039369999999999995,0.00161,4549.528507
63,1566219480000,0.0035,0.0035,0.0035,0.0035,640.261079
64,1566333120000,0.00349,0.0017100000000000001,0.003917,0.0017100000000000001,29132.27580411
65,1566333180000,0.00172,0.00179,0.0039109999999999995,0.00172,81754.0
66,1566333240000,0.0039109999999999995,0.0039109999999999995,0.0039109999999999995,0.0039109999999999995,465.06800000000004
67,1566810060000,0.002575,0.002575,0.002575,0.002575,1486.45245
68,1566831720000,0.0036634000000000002,0.0036634000000000002,0.0036634000000000002,0.0036634000000000002,1486.45245
69,1566835620000,0.0038,0.0038,0.0038,0.0038,465.06800000000004
70,1567125960000,0.0037203,0.0038899,0.0038899,0.0037203,10800.15214613
71,1567126080000,0.00404,0.00404,0.00404,0.00404,1998.0
72,1567126140000,0.01888,0.01888,0.01888,0.01888,5364.291496
73,1567126500000,0.01888,0.01888,0.01888,0.01888,10000.0
74,1567126680000,0.01888,0.01888,0.01888,0.01888,10500.0
75,1567126740000,0.01888,0.02,0.02,0.01888,34135.70850397
76,1567126800000,0.025255,0.25255,0.25255,0.025255,8820.9860065
77,1567126860000,0.25255,0.5,0.5,0.25255,11924.94037403
78,1567129200000,0.00331,0.00331,0.00331,0.00331,4000.0
79,1567129320000,0.0035,0.0035,0.0035,0.0035,15000.0
80,1567129380000,0.0035299999999999997,0.0035299999999999997,0.0035299999999999997,0.0035299999999999997,29440.0
81,1567129440000,0.0036659999999999996,0.018000000000000002,0.018000000000000002,0.00331,31300.428644
82,1567129560000,0.013999999999999999,0.013999999999999999,0.013999999999999999,0.013999999999999999,6790.392
83,1567129740000,0.0129,0.013000000000000001,0.013000000000000001,0.0129,14696.087131
84,1567143600000,0.0040000999999999995,0.004,0.0040000999999999995,0.004,11536.0
85,1567198320000,0.004567,0.004567,0.004567,0.004567,1500.0
86,1567305060000,0.004372699999999999,0.004372600000000001,0.004372699999999999,0.004372600000000001,8202.078328
87,1567470120000,0.0030521,0.0030521,0.0030521,0.0030521,676.0
88,1568449860000,0.0043,0.0043,0.0043,0.0043,1121.2715441999999
89,1568787840000,0.0043,0.0043,0.0043,0.0043,2110.5115019
90,1568984820000,0.0045,0.0045,0.0045,0.0045,1239.20161669
91,1568984940000,0.0045,0.0045,0.0045,0.0045,1529.02423831
92,1569158280000,0.0046,0.0046,0.0046,0.0046,2040.0
93,1569534180000,0.01,0.0023,0.01,0.00207,9590.0
94,1569534240000,0.0097,0.0026,0.01,0.0026,17450.0
95,1569534300000,0.0096,0.0033399999999999997,0.009890000000000001,0.0033399999999999997,23400.0
96,1569624900000,0.009000000000000001,0.009000000000000001,0.009000000000000001,0.009000000000000001,1012.00102842
97,1569624960000,0.009000000000000001,0.009000000000000001,0.009000000000000001,0.009000000000000001,5438.00293998
98,1569625140000,0.009000000000000001,0.009000000000000001,0.009000000000000001,0.009000000000000001,7535.44761285
99,1569633180000,0.0087,0.0087,0.0087,0.0087,1890.747286
100,1569674160000,0.003983400000000001,0.0038,0.003983400000000001,0.0038,4030.6833491
101,1569674220000,0.0038,0.0033399999999999997,0.0038,0.0033399999999999997,9727.34553787
102,1569674280000,0.0033399999999999997,0.0028,0.0033399999999999997,0.0028,17701.39012438
103,1569707220000,0.002837,0.002837,0.002837,0.002837,3012.0
104,1569707280000,0.002837,0.002837,0.002837,0.002837,12988.0
105,1569707340000,0.0026,0.0026,0.0026,0.0026,2012.0
106,1569759900000,0.0027061999999999998,0.0026,0.0027061999999999998,0.0026,20000.0
107,1569787920000,0.00265,0.0026,0.00265,0.0026,125737.0
108,1569870420000,0.00639,0.006640000000000001,0.006640000000000001,0.00639,15000.0
109,1569876720000,0.0059331,0.0059331,0.0059331,0.0059331,902.0
110,1570064220000,0.00588,0.00588,0.00588,0.00212,16590.0
111,1570064280000,0.00233,0.00233,0.00233,0.00233,14900.0
112,1570065180000,0.00569,0.00587,0.00587,0.002366,17784.1396461
113,1570065240000,0.00253,0.00263,0.00263,0.00253,16160.0
114,1570307940000,0.0055225000000000005,0.0055225000000000005,0.0055225000000000005,0.0055225000000000005,1143.9480577
115,1570308000000,0.002677,0.002677,0.002677,0.002677,2041.856
116,1570423500000,0.002137,0.0021,0.002137,0.0021,34200.0
117,1570423740000,0.0025,0.0025,0.0025,0.0025,9629.74331675
118,1570423800000,0.0025,0.0025,0.0025,0.0025,9056.98800874
119,1570425480000,0.00249,0.00249,0.00249,0.00249,5000.30680147
120,1570425600000,0.00249,0.00249,0.00249,0.00249,1557.68160642
121,1570433220000,0.00249,0.00249,0.00249,0.00249,67.28026662
122,1570944960000,0.0048,0.0048,0.0048,0.0048,2010.0
123,1571029380000,0.0022454999999999997,0.0022454999999999997,0.0022454999999999997,0.0022454999999999997,27.772288
124,1571497080000,0.0024086,0.0024086,0.0024086,0.0024086,2185.62
125,1571511060000,0.0024069000000000004,0.0024069000000000004,0.0024069000000000004,0.0024069000000000004,1108.2393412000001
126,1571684880000,0.004783,0.004783,0.004783,0.004783,834.0
127,1571994900000,0.0023951999999999997,0.002269,0.0023951999999999997,0.002269,6111.73407491
128,1571994960000,0.002269,0.002269,0.002269,0.002269,6656.89213327
129,1572564900000,0.0023,0.0023,0.0023,0.0023,11255.64424916
130,1574684280000,0.001811,0.001811,0.001811,0.001811,73957.01844519
131,1574686200000,0.001811,0.0017001999999999998,0.001811,0.0017001999999999998,155014.31399418
132,1574688240000,0.0016652000000000001,0.0016300999999999998,0.0016652000000000001,0.0016300999999999998,5671.99123468
133,1574688300000,0.0014884,0.0014419,0.0014884,0.00143,11385.62715317
134,1574688840000,0.0014210000000000002,0.0014210000000000002,0.0014210000000000002,0.0014210000000000002,700.0
135,1574689140000,0.0014209000000000001,0.0014210000000000002,0.0014210000000000002,0.0014209000000000001,19138.08131914
136,1574703420000,0.001243,0.001243,0.001243,0.001243,13503.938
137,1574707020000,0.00143,0.00161,0.00161,0.00143,11214.49330956
138,1574707140000,0.00161,0.00161,0.00161,0.00161,1020.4964375
139,1574708640000,0.00161,0.00161,0.00161,0.00161,1737.391303
140,1574708760000,0.00161,0.00161,0.00161,0.00161,7462.608697
141,1574710200000,0.0016300999999999998,0.0016300999999999998,0.0016300999999999998,0.0016300999999999998,4339.47505
142,1574710620000,0.0016300999999999998,0.0017001999999999998,0.0017001999999999998,0.0016300999999999998,55342.70970983
143,1574710800000,0.0017001999999999998,0.0017001999999999998,0.0017001999999999998,0.0017001999999999998,5208.6734702
144,1574710980000,0.0017001999999999998,0.0017001999999999998,0.0017001999999999998,0.0017001999999999998,57.75176679999999
145,1574711100000,0.0017,0.0017,0.0017,0.0017,6882.64006313
146,1574711280000,0.0017003,0.0017003,0.0017003,0.0017003,21445.28558612
147,1576604280000,0.000598,0.00059323,0.000598,0.00059323,41214.388604
148,1576832100000,0.00061,0.00061,0.00061,0.00061,3068.54408139
149,1578313800000,0.001398,0.001398,0.001398,0.001398,49806.32574257
150,1578365580000,0.0016010999999999998,0.0016010999999999998,0.0016010999999999998,0.0016010999999999998,22503.75209937
151,1578366840000,0.0016117999999999998,0.0016117999999999998,0.0016117999999999998,0.0016117999999999998,26759.97762231
152,1578434520000,0.00253,0.001007,0.00253,0.001007,3996.0
153,1578434760000,0.00243,0.0010148,0.00253,0.0010148,30980.31715
154,1578434820000,0.001116,0.002499,0.002499,0.001116,55790.356515
155,1578434880000,0.0038770000000000002,0.00144,0.0038770000000000002,0.001222,82000.0
156,1578434940000,0.001611,0.001611,0.001611,0.001611,46710.264
157,1578435000000,0.00165,0.0034990000000000004,0.0036981,0.00165,91420.528
158,1578435060000,0.0034601999999999996,0.0031,0.0034601999999999996,0.0031,7889.736
159,1578435300000,0.0016864,0.0016864,0.0016864,0.0016864,2000.0
160,1578435360000,0.0017699999999999999,0.0018800000000000002,0.0018800000000000002,0.0017699999999999999,17000.0
161,1578435420000,0.003,0.0019042999999999998,0.003,0.0019042000000000002,6000.0
162,1578435480000,0.0019044,0.0020111,0.0020111,0.0019044,32000.0
163,1578435540000,0.002016,0.0020510000000000003,0.0020510000000000003,0.002016,40000.0
164,1578436020000,0.0020510999999999997,0.0020510999999999997,0.0020510999999999997,0.0020510999999999997,2000.0
165,1578436080000,0.0020511999999999996,0.00298,0.00298,0.0020511999999999996,4000.0
166,1578436800000,0.002877,0.002877,0.002877,0.002877,2000.0
167,1578437700000,0.0027600000000000003,0.0020513000000000003,0.002872,0.0020513000000000003,4000.0
168,1578438540000,0.002872,0.002872,0.002872,0.002872,2000.0
169,1578438600000,0.0020514,0.0020514,0.0020514,0.0020514,2000.0
170,1578438660000,0.0021609999999999997,0.0028719,0.0028719,0.0021609999999999997,168000.0
171,1578438720000,0.0021866,0.002744,0.0028199,0.0021866,313000.0
172,1578438780000,0.0022,0.0022,0.0022,0.0022,2000.0
173,1578439020000,0.0022001,0.0022001,0.0022001,0.0022001,2000.0
174,1578439080000,0.0028,0.0022611000000000003,0.0028,0.0022611000000000003,141996.0
175,1578439140000,0.0027399,0.00279,0.00279,0.0027399,140000.0
176,1578439200000,0.00231,0.0027399,0.0027399,0.00231,301000.0
177,1578439260000,0.0023410999999999996,0.0026899999999999997,0.0027300000000000002,0.0023410999999999996,433281.0
178,1578439320000,0.00237,0.00237,0.00237,0.00237,2000.0
179,1578439680000,0.0023101,0.0023101,0.0023101,0.0023101,7446.64071932
180,1578439920000,0.0037700000000000003,0.0023101999999999997,0.0038770000000000002,0.0023101999999999997,4000.0
181,1578439980000,0.0024885000000000003,0.002471,0.0024885000000000003,0.002471,84842.0
182,1578440040000,0.00364,0.002589,0.0037600000000000003,0.002589,169515.0
183,1578440100000,0.0035,0.0035,0.0035,0.0035,84673.0
184,1578440160000,0.0032990000000000003,0.0032990000000000003,0.0032990000000000003,0.0032990000000000003,84700.0
185,1578440220000,0.0031,0.0031,0.0031,0.0031,2000.0
186,1578440280000,0.0020514,0.0030800000000000003,0.0030800000000000003,0.0020514,154000.0
187,1578440460000,0.003059,0.003059,0.003059,0.003059,2000.0
188,1578440520000,0.0029999000000000002,0.002288,0.003059,0.00217,302000.0
189,1578441180000,0.0028877,0.0021701,0.0028877,0.0021701,4000.0
190,1578441240000,0.0022761,0.0028,0.0028,0.0022761,47357.30979963
191,1578441300000,0.0028,0.002798,0.0028,0.002754,40000.0
192,1578441360000,0.002171,0.002171,0.002171,0.002171,2000.0
193,1578441420000,0.002288,0.0027,0.0027,0.002261,100880.0
194,1578441480000,0.00264,0.002644,0.002644,0.00264,43000.0
195,1578442020000,0.002687,0.0022611000000000003,0.002687,0.0022611000000000003,4000.0
196,1578442140000,0.0023176,0.0017100000000000001,0.0023176,0.0017100000000000001,159364.10573744
197,1578442200000,0.00259,0.002687,0.002687,0.0017358,36569.4510084
198,1578442260000,0.0019100000000000002,0.0026,0.0026,0.0019100000000000002,65000.0
199,1578442320000,0.0025399999999999997,0.00197,0.0026,0.00193,97370.0
200,1578442380000,0.002499,0.0020261,0.0025,0.002,154625.0
201,1578442440000,0.002439,0.00245,0.00245,0.002439,11600.0
202,1578442560000,0.0017358,0.0017117999999999999,0.0017358,0.0017117999999999999,11920.509325
203,1578444540000,0.0017119,0.0017119,0.0017119,0.0017119,2000.0
204,1578445080000,0.0017120000000000002,0.0017,0.0017120000000000002,0.0017,7658.33641753
205,1578486180000,0.00235,0.00235,0.00235,0.00235,3133.789818
206,1578847260000,0.001007,0.001007,0.001007,0.001007,16297.000680000001
207,1579002900000,0.00103,0.00103,0.00103,0.00103,4020.462287
208,1579089360000,0.0010532,0.0013874,0.0013904000000000002,0.0010532,105152.54439403
209,1579089420000,0.0013844,0.0013814,0.0013844,0.0013814,17984.41047628
210,1580153940000,0.0007700000000000001,0.0007700000000000001,0.0007700000000000001,0.0007700000000000001,20924.401538
211,1581543240000,0.0010485,0.0010485,0.0010485,0.0010485,3795.5598125
212,1583360220000,0.00215,0.00215,0.00215,0.00215,3500.0
213,1583360280000,0.0021499,0.003,0.003,0.0021499,98343.76241076
214,1583360340000,0.0011834,0.0011919,0.0011919,0.0011834,7000.0
215,1583360400000,0.001233,0.00135,0.00135,0.001233,78500.0
216,1583360460000,0.0029,0.0029,0.0029,0.0029,65000.0
217,1583360580000,0.0014503,0.0014503,0.0014503,0.0014503,3500.0
218,1583360640000,0.0015461,0.0016331,0.0016331,0.0015461,7000.0
219,1583360700000,0.0018030000000000001,0.0027499000000000004,0.0027499000000000004,0.0018030000000000001,7000.0
220,1583360760000,0.0019100000000000002,0.0019100000000000002,0.0019100000000000002,0.0019100000000000002,100000.0
221,1583360820000,0.0026,0.0026,0.0026,0.0026,3500.0
222,1583360880000,0.0025004999999999997,0.0025399999999999997,0.0025399999999999997,0.0025004999999999997,100000.0
223,1583360940000,0.0023899999999999998,0.0023899999999999998,0.0023899999999999998,0.0023899999999999998,100000.0
224,1583361000000,0.0023,0.0012567,0.0023,0.0012567,10700.0
225,1583361060000,0.0014199999999999998,0.001533,0.001533,0.0014199999999999998,7000.0
226,1583361120000,0.00156,0.0022559999999999998,0.0022559999999999998,0.00156,7000.0
227,1583361180000,0.0016300000000000002,0.0016300000000000002,0.0016300000000000002,0.0016300000000000002,145892.52236057
228,1583361420000,0.00131,0.002199,0.002199,0.00131,203500.0
229,1583361480000,0.0020989999999999997,0.0020989999999999997,0.0020989999999999997,0.0020989999999999997,199800.0
230,1583361540000,0.001381,0.001381,0.001381,0.001381,200000.0
231,1583361600000,0.002,0.002,0.002,0.002,3500.0
232,1583361780000,0.00148,0.00148,0.00148,0.00148,3500.0
233,1583361840000,0.00156,0.0018960000000000001,0.0018960000000000001,0.00156,223500.0
234,1583362020000,0.0017917000000000002,0.0017917000000000002,0.0017917000000000002,0.0017917000000000002,50000.0
235,1583362080000,0.0016147000000000002,0.0017100000000000001,0.0017100000000000001,0.0016147000000000002,192281.56043800001
236,1583362140000,0.0017100000000000001,0.0016874000000000001,0.0017100000000000001,0.0016874000000000001,88218.439562
237,1583362320000,0.0018687,0.0018687,0.0018687,0.0018687,3500.0
238,1583362560000,0.0018100000000000002,0.0018100000000000002,0.0018100000000000002,0.0018100000000000002,7000.0
239,1583362980000,0.0024100000000000002,0.0024100000000000002,0.0024100000000000002,0.0024100000000000002,496531.36076584
240,1583363100000,0.0016147000000000002,0.0016147000000000002,0.0016147000000000002,0.0016147000000000002,3800.0
241,1583363160000,0.001731,0.001731,0.001731,0.001731,81800.0
242,1583363220000,0.001761,0.0023409000000000004,0.0023409000000000004,0.001761,703500.0
243,1583363340000,0.0021916,0.0020873000000000003,0.0021916,0.0020873000000000003,7000.0
244,1583363580000,0.0019569,0.0018526,0.0019569,0.0018526,7000.0
245,1583363640000,0.0018100000000000002,0.0017135000000000002,0.0018100000000000002,0.0017135000000000002,33299.60215918
246,1583363700000,0.0016787,0.0018210000000000001,0.0018210000000000001,0.0016439,73500.0
247,1583363760000,0.0018100000000000002,0.0022889,0.0022890000000000002,0.0016669,17500.0
248,1583363820000,0.002179,0.0020699,0.002179,0.0020699,7000.0
249,1583363880000,0.0020185,0.001667,0.0020185,0.0016669,14000.0
250,1583363940000,0.002,0.0016902000000000002,0.002,0.0016902000000000002,18722.24
251,1583364000000,0.0016869,0.0018917,0.001998,0.0016669,80354.02710857
252,1583364300000,0.0018854,0.0018854,0.0018854,0.0018854,3500.0
253,1583364480000,0.0016902000000000002,0.00168,0.0016902000000000002,0.00168,58025.5
254,1583364540000,0.00148,0.0017656,0.0017743,0.00148,10500.0
255,1583364780000,0.0017352999999999997,0.0017352999999999997,0.0017352999999999997,0.0017352999999999997,3500.0
256,1583365020000,0.0015026,0.0014,0.0015026,0.0014,43707.54928246
257,1583365140000,0.0012122,0.0012122,0.0012122,0.0012122,121122.305652
258,1583365200000,0.00123,0.00123,0.00123,0.00123,13159.178049
259,1583365260000,0.0013106,0.0016902000000000002,0.0016902000000000002,0.0013106,355920.0
260,1583442120000,0.0012506,0.00123,0.0012506,0.00123,15506.32911392
261,1583442780000,0.0013066,0.0013066,0.0013066,0.0013066,5506.32911392
262,1583481240000,0.0012356,0.0012356,0.0012356,0.0012356,20030.2803539
263,1584014460000,0.00101,0.00099397,0.00101,0.00099397,38417.73284887
264,1584056580000,0.00099615,0.00099615,0.00099615,0.00099615,19990.21979319
265,1584566040000,0.00097737,0.00097737,0.00097737,0.00097737,5786.16890137
266,1585468380000,0.00095,0.00095,0.00095,0.00095,3132.757873
267,1586299020000,0.0014,0.00014875,0.0014,0.00014875,3996.0
268,1586299080000,0.0014,0.0018,0.0018,0.0013999000000000001,135410.312483
269,1586299140000,0.001777,0.001777,0.001777,0.001777,37000.0
270,1586299200000,0.00036569,0.00036569,0.00036569,0.00036569,2000.0
271,1586299260000,0.00041600000000000003,0.00071773,0.00071773,0.00041600000000000003,4000.0
272,1586299320000,0.00057582,0.00071773,0.00071773,0.00057582,4000.0
273,1586299860000,0.00057583,0.00148,0.00148,0.00057583,4000.0
274,1586299920000,0.000661,0.000661,0.000661,0.000661,165000.0
275,1586299980000,0.001439,0.001439,0.001439,0.001439,170000.0
276,1586300040000,0.00074,0.0007509999999999999,0.0007509999999999999,0.00074,3200.0
277,1586300100000,0.000781,0.0013390000000000001,0.0013390000000000001,0.000781,265000.0
278,1586300160000,0.0012917999999999998,0.0012490000000000001,0.0012917999999999998,0.0012490000000000001,264670.0
279,1586300580000,0.0007610000000000001,0.0011300000000000001,0.0011300000000000001,0.0007610000000000001,351600.0
280,1586301000000,0.001,0.00103,0.00103,0.001,1600.0
281,1586301060000,0.00103,0.0010186,0.001111,0.0010186,14780.281363
282,1586301120000,0.0009939999999999999,0.0009939999999999999,0.0009939999999999999,0.0009939999999999999,349300.0
283,1586306940000,0.00066101,0.00066101,0.00066101,0.00066101,36198.52675449
284,1586307000000,0.00041,0.00016452,0.00041,0.00016452,348805.34590300004
285,1586344620000,0.0009763,0.0009763,0.0009763,0.0009763,5000.0
286,1586349120000,0.000947,0.000947,0.000947,0.000947,21830.83209
287,1586349360000,0.00094699,0.00094698,0.00094699,0.00094698,17545.54634
288,1586349420000,0.00094697,0.000942,0.00094697,0.000942,4863.835354999999
289,1586380500000,0.0009032,0.0009032,0.0009032,0.0009032,14850.722908000002
290,1586380860000,0.00090319,0.00090319,0.00090319,0.00090319,1562.0
291,1586380920000,0.00090319,0.00090319,0.00090319,0.00090319,1562.0
292,1586439780000,0.0006666,0.0006666,0.0006666,0.0006666,14836.331305000002
293,1586495820000,0.000877,0.0008900000000000001,0.0008900000000000001,0.000877,7000.494688
294,1586524860000,0.0004967,0.0004967,0.0004967,0.0004967,51138.227056
295,1586524920000,0.00061899,0.00061899,0.00061899,0.00061899,51138.227056
296,1586528640000,0.00061,0.00061,0.00061,0.00061,64514.28569048
297,1587371880000,0.00079999,0.00079999,0.00079999,0.00079999,1723.0
298,1587537600000,0.00043921,0.00043921,0.00043921,0.00043921,1719.5539999999999
299,1587540180000,0.00055107,0.00055107,0.00055107,0.00055107,1719.5539999999999
300,1587570360000,0.0007885,0.0007885,0.0007885,0.0007885,4592.24039
301,1587570420000,0.00078849,0.00078848,0.00078849,0.00078848,4466.808355
302,1587570480000,0.00078847,0.00078849,0.00078849,0.00078847,33355.097310000005
303,1587570540000,0.0007885,0.0007885,0.0007885,0.00078849,48717.831305
304,1587638520000,0.00045406,0.00045406,0.00045406,0.00045406,90954.929831
305,1587638580000,0.00056543,0.00056403,0.00056543,0.00056403,90954.929831
306,1588189080000,0.0007693,0.0007693,0.0007693,0.0007693,18000.0
307,1588189200000,0.00076929,0.00076929,0.00076929,0.00076929,10000.0
308,1589194080000,0.00074557,0.00074557,0.00074557,0.00074557,1890.0
309,1589194140000,0.0007448,0.00074557,0.00074557,0.0007448,55741.24704109
310,1589194740000,0.00076928,0.00076928,0.00076928,0.00076928,1890.0
311,1589194800000,0.00076928,0.00076928,0.00076928,0.00076928,34051.90007079
312,1589195340000,0.0017499000000000002,0.0017499000000000002,0.0017499000000000002,0.0017499000000000002,1890.0
313,1589195580000,0.00061,0.00061,0.00061,0.00061,1600.0
314,1589288760000,0.00061001,0.00061001,0.00061001,0.00061001,3846.65431714
315,1589378880000,0.00058068,0.00058068,0.00058068,0.00058068,2081.744343
316,1591105740000,0.0016397000000000002,0.0016397000000000002,0.0016397000000000002,0.0016397000000000002,1570.0
317,1591105800000,0.0016397000000000002,0.00021111,0.0016397000000000002,0.00021111,2589.325197
318,1591105860000,0.0016300000000000002,0.00024927,0.0016300000000000002,0.00024927,3131.786233
319,1591115880000,0.0015571,0.0015571,0.0015571,0.0015571,4000.0
320,1591366020000,0.00054692,0.00054692,0.00054692,0.00054692,13772.81032351
321,1591366080000,0.00067774,0.00067774,0.00067774,0.00067774,13772.81032351
322,1591723440000,0.001373,0.001373,0.001373,0.001373,1562.0
323,1591723560000,0.001363,0.001363,0.001363,0.001363,1600.0
324,1591723620000,0.00028115,0.00028115,0.00028115,0.00028115,3158.83800085
325,1591879860000,0.0013062000000000002,0.001363,0.001363,0.0013062000000000002,9374.46204
326,1593682620000,0.001343,0.0013629000000000002,0.0013629000000000002,0.001343,12970.107827
327,1593682680000,0.001727,0.0028899999999999998,0.0028899999999999998,0.001727,263133.1249315
328,1593682740000,0.00292,0.0039999,0.0039999,0.00292,64327.0
329,1593682800000,0.0046244,0.0052899999999999996,0.0052899999999999996,0.0046244,2613068.36050634
330,1593682860000,0.0052899999999999996,0.0052899999999999996,0.0052899999999999996,0.0052899999999999996,3167530.7964214007
331,1593682920000,0.0007,0.00066357,0.0007,0.00066357,2801210.0
332,1593682980000,0.0007,0.0007,0.0007099999999999999,0.0007,3313665.2619227003
333,1593683100000,0.00082505,0.002,0.002,0.00082087,3748862.27199227
334,1593683160000,0.00075,0.00075,0.00075,0.00075,3700000.0
335,1593683220000,0.00197,0.00198,0.00198,0.00197,109780.0
336,1593686820000,0.00093773,0.00093773,0.00093773,0.00093773,50000.0
337,1593686880000,0.00093773,0.00093773,0.00093773,0.00093773,50000.0
338,1593687060000,0.00093773,0.00093773,0.00093773,0.00093773,17137.32261299
339,1593687480000,0.00095416,0.0009378,0.00095416,0.0009378,149259.94569999998
340,1593687840000,0.0009378,0.00093773,0.0009378,0.00093773,100000.0
341,1593687900000,0.00093772,0.00093772,0.00093772,0.00093772,99259.9457
342,1593688200000,0.0009373,0.0009373,0.0009373,0.0009373,50000.0
343,1593690540000,0.0009373,0.0009373,0.0009373,0.0009373,5836.168996
344,1593692940000,0.00093,0.00093,0.00093,0.00093,18000.0
345,1593697200000,0.0009279999999999999,0.0009279999999999999,0.0009279999999999999,0.0009279999999999999,28054.06906
346,1593697260000,0.0009279999999999999,0.0009279999999999999,0.0009279999999999999,0.0009279999999999999,2019.8929699999999
347,1593697500000,0.0009199999999999999,0.0009279999999999999,0.0009279999999999999,0.0009199999999999999,488997.888167
348,1593697560000,0.000925,0.000925,0.000925,0.000925,83346.793336
349,1593699300000,0.0009199999999999999,0.0009199999999999999,0.0009199999999999999,0.0009199999999999999,40484.0
350,1593699480000,0.000917,0.000917,0.000917,0.000917,38663.137741000006
351,1593754020000,0.0010445,0.0010445,0.0010445,0.0010445,58462.075403999996
352,1593754080000,0.0010445,0.0010445,0.0010445,0.0010445,50000.0
353,1593754140000,0.0010445,0.001,0.0010445,0.001,53423.776704
354,1593754500000,0.0010122,0.0010122,0.0010122,0.0010122,6746.23463229
355,1593754560000,0.0010122,0.001,0.0010122,0.001,23403.568535280006
356,1593979620000,0.0019,0.0019,0.0019,0.0019,6300.0
357,1594078260000,0.000925,0.000925,0.000925,0.000925,18080.71719503
358,1594078440000,0.000925,0.000925,0.000925,0.000925,14919.28280497
359,1594078620000,0.0008347999999999999,0.000811,0.0008347999999999999,0.000811,85080.71719503
360,1594079100000,0.00083633,0.0008119999999999999,0.00083633,0.0008119999999999999,200000.0
361,1594079220000,0.0008151,0.0008151,0.0008151,0.0008151,200000.0
362,1594259820000,0.0012182,0.0012182,0.0012182,0.0012182,1600.0
363,1594643040000,0.00073366,0.00073366,0.00073366,0.00073366,6076.928847
364,1594932780000,0.0018670000000000002,0.0018670000000000002,0.0018670000000000002,0.0018670000000000002,2000.0
365,1595687220000,0.0018670000000000002,0.0018670000000000002,0.0018670000000000002,0.0018670000000000002,3000.0
366,1595772600000,0.0018670000000000002,0.002,0.002,0.0018670000000000002,41097.194309
367,1595772660000,0.0008,0.0018670000000000002,0.0018670000000000002,0.0008,81029.99984
368,1595772840000,0.0018670000000000002,0.0018670000000000002,0.0018670000000000002,0.0018670000000000002,1000.0
369,1595772900000,0.0017788,0.0017788,0.0017788,0.0017788,111110.0
370,1595773140000,0.00081516,0.00081516,0.00081516,0.00081516,151111.0
371,1595773500000,0.0015767,0.0015767,0.0015767,0.0015767,55555.0
372,1595773560000,0.00082516,0.00082516,0.00082516,0.00082516,51361.31992
373,1595773620000,0.0014746,0.00082632,0.0014746,0.00082632,207233.0
374,1595773680000,0.0013767,0.0014715,0.0014715,0.0013767,158171.0
375,1595773800000,0.00086662,0.00084235,0.00086662,0.00084235,158122.0
376,1595773980000,0.0011,0.0011,0.0011,0.0011,50000.0
377,1595774040000,0.0013486,0.0011,0.0013486,0.0011,135090.026253
378,1595774100000,0.0011,0.0011,0.0011,0.0011,118052.56343243
379,1595774340000,0.0011,0.0011,0.0011,0.0011,3331.90128
380,1595785020000,0.0011,0.0011,0.0011,0.0011,100000.0
381,1595785200000,0.0011,0.0011,0.0011,0.0011,100000.0
382,1595786820000,0.001,0.001,0.001,0.001,13292.2129
383,1595800860000,0.001,0.001,0.001,0.001,2500.0
384,1595800980000,0.0010485999999999998,0.0010485999999999998,0.0010485999999999998,0.0010485999999999998,600.0
385,1595830320000,0.0011,0.0011,0.0011,0.0011,3488.42576
386,1595842680000,0.001,0.001,0.001,0.001,30000.0
387,1595862960000,0.0012,0.0012,0.0012,0.0012,174351.1346
388,1595863320000,0.0012,0.0012,0.0012,0.0012,125648.8654
389,1595912100000,0.001,0.001,0.001,0.001,89999.70000299999
390,1595944680000,0.001,0.001,0.001,0.001,5830.332827
391,1595944860000,0.001,0.001,0.001,0.001,189054.67387848
392,1596003720000,0.0018,0.0018,0.0018,0.0018,2495.084148
393,1596003840000,0.0018999000000000002,0.0018999000000000002,0.0018999000000000002,0.0018999000000000002,19166.0
394,1596013860000,0.0010263,0.0010263,0.0010263,0.0010263,5000.0
395,1596013920000,0.0010263,0.0010265,0.001027,0.0010263,45000.0
396,1596015720000,0.001,0.001,0.001,0.001,36340.65643168
397,1596085620000,0.0010000999999999999,0.0010000999999999999,0.0010000999999999999,0.0010000999999999999,29000.0
398,1596447420000,0.001001,0.001001,0.001001,0.001001,21562.0
399,1596447480000,0.001001,0.0010002000000000001,0.001001,0.0010002000000000001,70000.0
400,1596447540000,0.0010002000000000001,0.0010002000000000001,0.0010002000000000001,0.0010002000000000001,15361.36528684
401,1596448020000,0.0010002000000000001,0.000953,0.0010002000000000001,0.000953,19572.63471316
402,1596448080000,0.00094728,0.00094728,0.00094728,0.00094728,18686.0
403,1596448140000,0.00094728,0.00094533,0.00094728,0.00094533,11562.0
404,1596450180000,0.00093767,0.00093767,0.00093767,0.00093767,1562.0
405,1596450240000,0.00093,0.00093,0.00093,0.00093,1562.0
406,1596494760000,0.00093456,0.0009232999999999998,0.00093456,0.0009232999999999998,50000.0
407,1596494820000,0.00092233,0.00091106,0.00092233,0.00091106,4686.0
408,1596494880000,0.00091106,0.000907,0.00091106,0.000907,41445.06369437
409,1596494940000,0.00089933,0.00089933,0.00089933,0.00089933,1562.0
410,1596495180000,0.00089167,0.00089167,0.00089167,0.00089167,1562.0
411,1596719580000,0.0008849999999999999,0.0008849999999999999,0.0008849999999999999,0.0008849999999999999,1562.0
412,1596972720000,0.0014,0.0014,0.0014,0.0014,2490.114956
413,1597080660000,0.001,0.001,0.001,0.001,2000.0
414,1597095300000,0.001,0.001,0.001,0.001,98000.0
415,1597196820000,0.001,0.001,0.001,0.001,15000.0
416,1597214460000,0.0013876,0.0013876,0.0013876,0.0013876,2002.224597
417,1597301040000,0.001011,0.001011,0.001011,0.001011,15000.0
418,1597301700000,0.001,0.001,0.001,0.001,75000.0
419,1597338600000,0.001,0.001,0.001,0.001,27309.53762637
420,1597373760000,0.00095,0.00095,0.00095,0.00095,2000.222372
421,1597374540000,0.001,0.001,0.001,0.001,14000.0
422,1597399800000,0.001,0.001,0.001,0.001,8400.0
423,1597421580000,0.001,0.001,0.001,0.001,13193.79776611
424,1597423140000,0.001,0.001,0.001,0.001,137278.0777734
425,1597567200000,0.0011193,0.0011193,0.0011193,0.0011193,4911.850338
426,1597704000000,0.001,0.001,0.001,0.001,29969.70030303
427,1597705440000,0.0010987,0.0010987,0.0010987,0.0010987,1562.0
428,1597705620000,0.001,0.001,0.001,0.001,56875.85015110001
429,1597705680000,0.001,0.001,0.001,0.001,28352.6397667
430,1597705920000,0.0010400000000000001,0.0010400000000000001,0.0010400000000000001,0.0010400000000000001,135495.08112742
431,1597705980000,0.0010199999999999999,0.0010199999999999999,0.0010199999999999999,0.0010199999999999999,82229.7465917
432,1597706040000,0.0010199999999999999,0.0010199999999999999,0.0010199999999999999,0.0010199999999999999,54546.097371300006
433,1597706100000,0.00101,0.00101,0.00101,0.00101,109512.82224030001
434,1597711200000,0.001,0.001,0.001,0.001,8000.0
435,1597743600000,0.0010234,0.001001,0.0010234,0.001001,140000.0
436,1597959660000,0.000965,0.000965,0.000965,0.000965,2500.0
437,1597960020000,0.0009109999999999999,0.0009109999999999999,0.0009109999999999999,0.0009109999999999999,3600.0
438,1597960200000,0.0009109999999999999,0.0009109999999999999,0.0009109999999999999,0.0009109999999999999,5838.0
439,1597960260000,0.00090327,0.00090327,0.00090327,0.00090327,20000.0
440,1597960920000,0.0009876,0.0009876,0.0009876,0.0009876,76275.77
441,1597962060000,0.00088477,0.00088477,0.00088477,0.00088477,4000.0
442,1597975260000,0.00088574,0.00088574,0.00088574,0.00088574,10208.1805963
443,1598100720000,0.001098,0.001098,0.001098,0.001098,3284.1532620000003
444,1598177640000,0.00088678,0.00088477,0.00088678,0.00088477,81196.49423
445,1598215380000,0.00098765,0.00098765,0.00098765,0.00098765,10000.0
446,1598290080000,0.00098765,0.00098765,0.00098765,0.00098765,2000.0
447,1598290140000,0.00098765,0.00098765,0.00098765,0.00098765,3000.0
448,1598290200000,0.00098765,0.00098765,0.00098765,0.00098765,4000.0
449,1598290260000,0.00098765,0.00098765,0.00098765,0.00098765,6000.0
450,1598290380000,0.00098765,0.00098765,0.00098765,0.00098765,15000.0
451,1598290500000,0.00098765,0.00098765,0.00098765,0.00098765,1562.0
452,1598731680000,0.00088888,0.00088477,0.00088888,0.00088477,83322.899454
453,1598731860000,0.00088477,0.00088477,0.00088477,0.00088477,22213.075439
454,1598737980000,0.00085,0.0008301000000000001,0.00085,0.0008301000000000001,3393.2034
455,1598785200000,0.00098765,0.00098765,0.00098765,0.00098765,52812.553564
456,1598816220000,0.00098765,0.00098765,0.00098765,0.00098765,20395.446436000002
457,1598834640000,0.001,0.0010988,0.0010988,0.001,32464.73569503
458,1598834700000,0.0010989,0.0010989,0.0010989,0.0010989,14788.702265
459,1598885220000,0.00105,0.0010815,0.0010815,0.00105,11185.297735
460,1598885580000,0.0010815,0.0010815,0.0010815,0.0010815,40000.0
461,1598885640000,0.0010815,0.0010815,0.0010815,0.0010815,90000.0
462,1598886120000,0.00105,0.0010895,0.0010895,0.00105,11185.297735
463,1598886180000,0.0010895,0.00115,0.00115,0.0010895,199902.79149081
464,1598948880000,0.0013314,0.0013314,0.0013314,0.0013314,2400.0
465,1598954160000,0.0013271,0.001389,0.001389,0.0013271,68838.02919246
466,1598956440000,0.0015595999999999997,0.0015595999999999997,0.0015595999999999997,0.0015595999999999997,10000.0
467,1598957940000,0.00139,0.00139,0.00139,0.00139,71161.97080754
468,1598961060000,0.00145,0.00145,0.00145,0.00145,113934.57218599999
469,1598972520000,0.0014197,0.0014197,0.0014197,0.0014197,9760.0
470,1598972940000,0.0014197,0.0014199999999999998,0.0014199999999999998,0.0014197,107159.507738
471,1599088320000,0.00087797,0.00087797,0.00087797,0.00087797,20375.050989
472,1599121200000,0.0013575999999999998,0.00141,0.00141,0.0013575999999999998,77558.49726406
473,1599121260000,0.00141,0.00141,0.00141,0.00141,155951.50273594
474,1599121740000,0.00088888,0.00088888,0.00088888,0.00088888,28971.0
475,1599121860000,0.00088888,0.00087154,0.00088888,0.00087154,233290.0
476,1599138480000,0.00092006,0.00092006,0.00092006,0.00092006,79840.0
477,1599190320000,0.00093,0.00093,0.00093,0.00093,42055.872858999996
478,1599207300000,0.00092519,0.00092519,0.00092519,0.00092519,1562.0
479,1599399060000,0.00092519,0.00092519,0.00092519,0.00092519,38583.127141
480,1599400200000,0.00092519,0.00092519,0.00092519,0.00092519,3699.6567189999996
481,1600007640000,0.0012556,0.0012556,0.0012556,0.0012556,1562.0
482,1600283400000,0.00082345,0.00082345,0.00082345,0.00082345,9980.0
483,1600300440000,0.0011928,0.0011928,0.0011928,0.0011928,1562.0
484,1600300500000,0.00082345,0.00082345,0.00082345,0.00082345,3118.0
485,1600363800000,0.00082345,0.00082345,0.00082345,0.00082345,2000.0
486,1600679940000,0.00082828,0.00082828,0.00082828,0.00082828,2571.770703
487,1600779420000,0.00082828,0.00082401,0.00082828,0.00082401,87475.21267946
488,1600779780000,0.000824,0.0008101000000000001,0.000824,0.0008101000000000001,47571.770702999995
489,1600779840000,0.0007700000000000001,0.00064341,0.0007700000000000001,0.00064341,139656.80370354
490,1601065440000,0.001184,0.001184,0.001184,0.001184,23315.847318
491,1601744880000,0.000644,0.000644,0.000644,0.000644,23269.215623
492,1603251660000,0.000666,0.000666,0.000666,0.000666,2485.186933
493,1603489320000,0.000666,0.000666,0.000666,0.000666,3129.0
494,1603832100000,0.000666,0.00064342,0.000666,0.00064342,333149.511254
495,1603839480000,0.00064342,0.00064342,0.00064342,0.00064342,62544.43
496,1604218740000,0.00065,0.00065,0.00065,0.00065,5000.0
497,1604218860000,0.00064342,0.00064342,0.00064342,0.00064342,59499.520533
498,1604375280000,0.00064342,0.00064342,0.00064342,0.00064342,249603.06677600002
499,1604407800000,0.00074,0.00074,0.00074,0.00074,2000.0
500,1604613660000,0.00064342,0.00064342,0.00064342,0.00064342,23235.796104
501,1604747760000,0.0007099999999999999,0.0010984999999999999,0.0010984999999999999,0.0007099999999999999,196297.783441
502,1604747820000,0.0010984999999999999,0.0010949999999999998,0.0010984999999999999,0.0010949999999999998,12000.0
503,1605516660000,0.00107,0.001088,0.001088,0.00107,9500.0
504,1605517560000,0.0007769999999999999,0.0007769999999999999,0.0007769999999999999,0.0007769999999999999,9481.0
505,1605523080000,0.0009279999999999999,0.0009279999999999999,0.0009279999999999999,0.0009279999999999999,4701.954645000001
506,1605600180000,0.0007769999999999999,0.0007769999999999999,0.0007769999999999999,0.0007769999999999999,40519.0
507,1605600240000,0.000737,0.000737,0.000737,0.000737,50000.0
508,1605600300000,0.000686,0.00067818,0.000686,0.00067818,117362.18787410001
509,1606228920000,0.0008349999999999999,0.0008349999999999999,0.0008349999999999999,0.0008349999999999999,5000.0
510,1606378080000,0.0006900000000000001,0.00067827,0.0006900000000000001,0.00067827,40000.0
511,1606378140000,0.00067827,0.00067827,0.00067827,0.00067827,30728.66933886
512,1606379700000,0.00068041,0.00065,0.00068041,0.00065,83396.56428461999
